the r-square - Data Wrangling with R’s tidyverse
…
Arrange the data according the character’s height, largest on top ! (google it!!)

a tidyverse solution

starwars %>% arrange(desc(height))

# A tibble: 87 × 14
   name     height  mass hair_color skin_color eye_color birth_year sex   gender
   <chr>     <int> <dbl> <chr>      <chr>      <chr>          <dbl> <chr> <chr> 
 1 Yarael …    264    NA none       white      yellow          NA   male  mascu…
 2 Tarfful     234   136 brown      brown      blue            NA   male  mascu…
 3 Lama Su     229    88 none       grey       black           NA   male  mascu…
 4 Chewbac…    228   112 brown      unknown    blue           200   male  mascu…
 5 Roos Ta…    224    82 none       grey       orange          NA   male  mascu…
 6 Grievous    216   159 none       brown, wh… green, y…       NA   male  mascu…
 7 Taun We     213    NA none       grey       black           NA   fema… femin…
 8 Rugor N…    206    NA none       green      orange          NA   male  mascu…
 9 Tion Me…    206    80 none       grey       black           NA   male  mascu…
10 Darth V…    202   136 none       white      yellow          41.9 male  mascu…
# ℹ 77 more rows
# ℹ 5 more variables: homeworld <chr>, species <chr>, films <list>,
#   vehicles <list>, starships <list>

Who is smallest (comes on top after arranging) ?

a tidyverse solution

starwars %>% arrange(height)

# A tibble: 87 × 14
   name     height  mass hair_color skin_color eye_color birth_year sex   gender
   <chr>     <int> <dbl> <chr>      <chr>      <chr>          <dbl> <chr> <chr> 
 1 Yoda         66    17 white      green      brown            896 male  mascu…
 2 Ratts T…     79    15 none       grey, blue unknown           NA male  mascu…
 3 Wicket …     88    20 brown      brown      brown              8 male  mascu…
 4 Dud Bolt     94    45 none       blue, grey yellow            NA male  mascu…
 5 R2-D2        96    32 <NA>       white, bl… red               33 none  mascu…
 6 R4-P17       96    NA none       silver, r… red, blue         NA none  femin…
 7 R5-D4        97    32 <NA>       white, red red               NA none  mascu…
 8 Sebulba     112    40 none       grey, red  orange            NA male  mascu…
 9 Gasgano     122    NA none       white, bl… black             NA male  mascu…
10 Watto       137    NA black      blue, grey yellow            NA male  mascu…
# ℹ 77 more rows
# ℹ 5 more variables: homeworld <chr>, species <chr>, films <list>,
#   vehicles <list>, starships <list>
…
Get the top 3 (highest mass) for each species !

ignore characters with missing data for mass

note, -not missing- are those who are not ! missing is.na()

a tidyverse solution

starwars %>% group_by(species) %>% filter(!is.na(mass)) %>% slice_max(mass, n = 3)

# A tibble: 40 × 14
# Groups:   species [32]
   name     height  mass hair_color skin_color eye_color birth_year sex   gender
   <chr>     <int> <dbl> <chr>      <chr>      <chr>          <dbl> <chr> <chr> 
 1 Ratts T…     79    15 none       grey, blue unknown           NA male  mascu…
 2 Dexter …    198   102 none       brown      yellow            NA male  mascu…
 3 Ki-Adi-…    198    82 white      pale       yellow            92 male  mascu…
 4 Zam Wes…    168    55 blonde     fair, gre… yellow            NA fema… femin…
 5 IG-88       200   140 none       metal      red               15 none  mascu…
 6 C-3PO       167    75 <NA>       gold       yellow           112 none  mascu…
 7 R2-D2        96    32 <NA>       white, bl… red               33 none  mascu…
 8 R5-D4        97    32 <NA>       white, red red               NA none  mascu…
 9 Sebulba     112    40 none       grey, red  orange            NA male  mascu…
10 Wicket …     88    20 brown      brown      brown              8 male  mascu…
# ℹ 30 more rows
# ℹ 5 more variables: homeworld <chr>, species <chr>, films <list>,
#   vehicles <list>, starships <list>
…
exercises

The starwars dataset is probably still loaded into your workspace !

a tidyverse solution

data(starwars)

Select the columns hair, skin and eye color !

a tidyverse solution

starwars %>% select(hair_color, skin_color, eye_color)

# A tibble: 87 × 3
   hair_color    skin_color  eye_color
   <chr>         <chr>       <chr>    
 1 blond         fair        blue     
 2 <NA>          gold        yellow   
 3 <NA>          white, blue red      
 4 none          white       yellow   
 5 brown         light       brown    
 6 brown, grey   light       blue     
 7 brown         light       blue     
 8 <NA>          white, red  red      
 9 black         light       brown    
10 auburn, white fair        blue-gray
# ℹ 77 more rows

Use the : operator for consecutive columns hair and eye color !

a tidyverse solution

starwars %>% select(hair_color:eye_color)

# A tibble: 87 × 3
   hair_color    skin_color  eye_color
   <chr>         <chr>       <chr>    
 1 blond         fair        blue     
 2 <NA>          gold        yellow   
 3 <NA>          white, blue red      
 4 none          white       yellow   
 5 brown         light       brown    
 6 brown, grey   light       blue     
 7 brown         light       blue     
 8 <NA>          white, red  red      
 9 black         light       brown    
10 auburn, white fair        blue-gray
# ℹ 77 more rows

Remove these columns instead of selecting them !

a tidyverse solution

starwars %>% select(-(hair_color:eye_color))

# A tibble: 87 × 11
   name    height  mass birth_year sex   gender homeworld species films vehicles
   <chr>    <int> <dbl>      <dbl> <chr> <chr>  <chr>     <chr>   <lis> <list>  
 1 Luke S…    172    77       19   male  mascu… Tatooine  Human   <chr> <chr>   
 2 C-3PO      167    75      112   none  mascu… Tatooine  Droid   <chr> <chr>   
 3 R2-D2       96    32       33   none  mascu… Naboo     Droid   <chr> <chr>   
 4 Darth …    202   136       41.9 male  mascu… Tatooine  Human   <chr> <chr>   
 5 Leia O…    150    49       19   fema… femin… Alderaan  Human   <chr> <chr>   
 6 Owen L…    178   120       52   male  mascu… Tatooine  Human   <chr> <chr>   
 7 Beru W…    165    75       47   fema… femin… Tatooine  Human   <chr> <chr>   
 8 R5-D4       97    32       NA   none  mascu… Tatooine  Droid   <chr> <chr>   
 9 Biggs …    183    84       24   male  mascu… Tatooine  Human   <chr> <chr>   
10 Obi-Wa…    182    77       57   male  mascu… Stewjon   Human   <chr> <chr>   
# ℹ 77 more rows
# ℹ 1 more variable: starships <list>

Select all columns with a name ending with color (check help files on helper functions, use ?language) !

a tidyverse solution

starwars %>% select(ends_with("color"))

# A tibble: 87 × 3
   hair_color    skin_color  eye_color
   <chr>         <chr>       <chr>    
 1 blond         fair        blue     
 2 <NA>          gold        yellow   
 3 <NA>          white, blue red      
 4 none          white       yellow   
 5 brown         light       brown    
 6 brown, grey   light       blue     
 7 brown         light       blue     
 8 <NA>          white, red  red      
 9 black         light       brown    
10 auburn, white fair        blue-gray
# ℹ 77 more rows

Use select to rename homeworld to home_world !

a tidyverse solution

starwars %>% select(home_world = homeworld)

# A tibble: 87 × 1
   home_world
   <chr>     
 1 Tatooine  
 2 Tatooine  
 3 Naboo     
 4 Tatooine  
 5 Alderaan  
 6 Tatooine  
 7 Tatooine  
 8 Tatooine  
 9 Tatooine  
10 Stewjon   
# ℹ 77 more rows

Do the same with the rename( ) function !

a tidyverse solution

starwars %>% rename(home_world = homeworld)

# A tibble: 87 × 14
   name     height  mass hair_color skin_color eye_color birth_year sex   gender
   <chr>     <int> <dbl> <chr>      <chr>      <chr>          <dbl> <chr> <chr> 
 1 Luke Sk…    172    77 blond      fair       blue            19   male  mascu…
 2 C-3PO       167    75 <NA>       gold       yellow         112   none  mascu…
 3 R2-D2        96    32 <NA>       white, bl… red             33   none  mascu…
 4 Darth V…    202   136 none       white      yellow          41.9 male  mascu…
 5 Leia Or…    150    49 brown      light      brown           19   fema… femin…
 6 Owen La…    178   120 brown, gr… light      blue            52   male  mascu…
 7 Beru Wh…    165    75 brown      light      blue            47   fema… femin…
 8 R5-D4        97    32 <NA>       white, red red             NA   none  mascu…
 9 Biggs D…    183    84 black      light      brown           24   male  mascu…
10 Obi-Wan…    182    77 auburn, w… fair       blue-gray       57   male  mascu…
# ℹ 77 more rows
# ℹ 5 more variables: home_world <chr>, species <chr>, films <list>,
#   vehicles <list>, starships <list>

Select only the numeric variables, use where( ) and is.numeric( ) !

Maybe check the ?language again

a tidyverse solution

starwars %>% select(where(is.numeric))

# A tibble: 87 × 3
   height  mass birth_year
    <int> <dbl>      <dbl>
 1    172    77       19  
 2    167    75      112  
 3     96    32       33  
 4    202   136       41.9
 5    150    49       19  
 6    178   120       52  
 7    165    75       47  
 8     97    32       NA  
 9    183    84       24  
10    182    77       57  
# ℹ 77 more rows

Select only those variables with names height, mass and/or size, with any_of( ) !

a tidyverse solution

starwars %>% select(any_of(c('height','mass','size')))

# A tibble: 87 × 2
   height  mass
    <int> <dbl>
 1    172    77
 2    167    75
 3     96    32
 4    202   136
 5    150    49
 6    178   120
 7    165    75
 8     97    32
 9    183    84
10    182    77
# ℹ 77 more rows
…
exercises

For the starwars data, create a new variable height_m with height divided by 100 !

a tidyverse solution

starwars %>% mutate(height_m = height / 100) %>% select(height_m, height, everything( ))

# A tibble: 87 × 15
   height_m height name    mass hair_color skin_color eye_color birth_year sex  
      <dbl>  <int> <chr>  <dbl> <chr>      <chr>      <chr>          <dbl> <chr>
 1     1.72    172 Luke …    77 blond      fair       blue            19   male 
 2     1.67    167 C-3PO     75 <NA>       gold       yellow         112   none 
 3     0.96     96 R2-D2     32 <NA>       white, bl… red             33   none 
 4     2.02    202 Darth…   136 none       white      yellow          41.9 male 
 5     1.5     150 Leia …    49 brown      light      brown           19   fema…
 6     1.78    178 Owen …   120 brown, gr… light      blue            52   male 
 7     1.65    165 Beru …    75 brown      light      blue            47   fema…
 8     0.97     97 R5-D4     32 <NA>       white, red red             NA   none 
 9     1.83    183 Biggs…    84 black      light      brown           24   male 
10     1.82    182 Obi-W…    77 auburn, w… fair       blue-gray       57   male 
# ℹ 77 more rows
# ℹ 6 more variables: gender <chr>, homeworld <chr>, species <chr>,
#   films <list>, vehicles <list>, starships <list>

Note, the select function also defines the order, again the everything function avoids explicitely naming all variables

Create the same new variable, but also define BMI as mass / height_m to the power 2 !

a tidyverse solution

starwars %>% mutate(height_m = height / 100, BMI = mass / (height_m^2)) %>% select(BMI, everything( ))

# A tibble: 87 × 16
     BMI name      height  mass hair_color skin_color eye_color birth_year sex  
   <dbl> <chr>      <int> <dbl> <chr>      <chr>      <chr>          <dbl> <chr>
 1  26.0 Luke Sky…    172    77 blond      fair       blue            19   male 
 2  26.9 C-3PO        167    75 <NA>       gold       yellow         112   none 
 3  34.7 R2-D2         96    32 <NA>       white, bl… red             33   none 
 4  33.3 Darth Va…    202   136 none       white      yellow          41.9 male 
 5  21.8 Leia Org…    150    49 brown      light      brown           19   fema…
 6  37.9 Owen Lars    178   120 brown, gr… light      blue            52   male 
 7  27.5 Beru Whi…    165    75 brown      light      blue            47   fema…
 8  34.0 R5-D4         97    32 <NA>       white, red red             NA   none 
 9  25.1 Biggs Da…    183    84 black      light      brown           24   male 
10  23.2 Obi-Wan …    182    77 auburn, w… fair       blue-gray       57   male 
# ℹ 77 more rows
# ℹ 7 more variables: gender <chr>, homeworld <chr>, species <chr>,
#   films <list>, vehicles <list>, starships <list>, height_m <dbl>

Use transmute to repeat the above mutation but keep only height_m and BMI !

a tidyverse solution

starwars %>% transmute(height_m = height / 100, BMI = mass / (height_m^2))

# A tibble: 87 × 2
   height_m   BMI
      <dbl> <dbl>
 1     1.72  26.0
 2     1.67  26.9
 3     0.96  34.7
 4     2.02  33.3
 5     1.5   21.8
 6     1.78  37.9
 7     1.65  27.5
 8     0.97  34.0
 9     1.83  25.1
10     1.82  23.2
# ℹ 77 more rows

Create a new variable with the z-score of height (zcore = (value-mean)/sd) !

a tidyverse solution

starwars %>% mutate(zscore=(height-mean(height,na.rm=T))/sd(height,na.rm=T)) %>% select(zscore, everything( ))

# A tibble: 87 × 15
    zscore name    height  mass hair_color skin_color eye_color birth_year sex  
     <dbl> <chr>    <int> <dbl> <chr>      <chr>      <chr>          <dbl> <chr>
 1 -0.0678 Luke S…    172    77 blond      fair       blue            19   male 
 2 -0.212  C-3PO      167    75 <NA>       gold       yellow         112   none 
 3 -2.25   R2-D2       96    32 <NA>       white, bl… red             33   none 
 4  0.795  Darth …    202   136 none       white      yellow          41.9 male 
 5 -0.701  Leia O…    150    49 brown      light      brown           19   fema…
 6  0.105  Owen L…    178   120 brown, gr… light      blue            52   male 
 7 -0.269  Beru W…    165    75 brown      light      blue            47   fema…
 8 -2.22   R5-D4       97    32 <NA>       white, red red             NA   none 
 9  0.249  Biggs …    183    84 black      light      brown           24   male 
10  0.220  Obi-Wa…    182    77 auburn, w… fair       blue-gray       57   male 
# ℹ 77 more rows
# ℹ 6 more variables: gender <chr>, homeworld <chr>, species <chr>,
#   films <list>, vehicles <list>, starships <list>

Now create that z-score per species !

a tidyverse solution

starwars %>% group_by(species) %>% mutate(zscore=(height-mean(height,na.rm=T))/sd(height,na.rm=T)) %>% select(zscore, species, height, everything( ))

# A tibble: 87 × 15
# Groups:   species [38]
   zscore species height name    mass hair_color skin_color eye_color birth_year
    <dbl> <chr>    <int> <chr>  <dbl> <chr>      <chr>      <chr>          <dbl>
 1 -0.371 Human      172 Luke …    77 blond      fair       blue            19  
 2  0.728 Droid      167 C-3PO     75 <NA>       gold       yellow         112  
 3 -0.716 Droid       96 R2-D2     32 <NA>       white, bl… red             33  
 4  2.02  Human      202 Darth…   136 none       white      yellow          41.9
 5 -2.13  Human      150 Leia …    49 brown      light      brown           19  
 6  0.108 Human      178 Owen …   120 brown, gr… light      blue            52  
 7 -0.929 Human      165 Beru …    75 brown      light      blue            47  
 8 -0.696 Droid       97 R5-D4     32 <NA>       white, red red             NA  
 9  0.507 Human      183 Biggs…    84 black      light      brown           24  
10  0.427 Human      182 Obi-W…    77 auburn, w… fair       blue-gray       57  
# ℹ 77 more rows
# ℹ 6 more variables: sex <chr>, gender <chr>, homeworld <chr>, films <list>,
#   vehicles <list>, starships <list>

Create a gender indicator that replaces the male and female labels with m and f (use recode( )) !

a tidyverse solution

starwars %>% mutate(new_value=recode(sex,'male'='m','female'='f')) %>% select(new_value, sex, everything( ))

# A tibble: 87 × 15
   new_value sex   name  height  mass hair_color skin_color eye_color birth_year
   <chr>     <chr> <chr>  <int> <dbl> <chr>      <chr>      <chr>          <dbl>
 1 m         male  Luke…    172    77 blond      fair       blue            19  
 2 none      none  C-3PO    167    75 <NA>       gold       yellow         112  
 3 none      none  R2-D2     96    32 <NA>       white, bl… red             33  
 4 m         male  Dart…    202   136 none       white      yellow          41.9
 5 f         fema… Leia…    150    49 brown      light      brown           19  
 6 m         male  Owen…    178   120 brown, gr… light      blue            52  
 7 f         fema… Beru…    165    75 brown      light      blue            47  
 8 none      none  R5-D4     97    32 <NA>       white, red red             NA  
 9 m         male  Bigg…    183    84 black      light      brown           24  
10 m         male  Obi-…    182    77 auburn, w… fair       blue-gray       57  
# ℹ 77 more rows
# ℹ 6 more variables: gender <chr>, homeworld <chr>, species <chr>,
#   films <list>, vehicles <list>, starships <list>

Create a gender indicator that, when sex is ‘none’ uses the species values and otherwise keeps the sex specification (use ifelse( )))!

a tidyverse solution

starwars %>% mutate(new_value=ifelse(sex=='none',species,sex)) %>% select(new_value, species, sex, everything( ))

# A tibble: 87 × 15
   new_value species sex    name    height  mass hair_color skin_color eye_color
   <chr>     <chr>   <chr>  <chr>    <int> <dbl> <chr>      <chr>      <chr>    
 1 male      Human   male   Luke S…    172    77 blond      fair       blue     
 2 Droid     Droid   none   C-3PO      167    75 <NA>       gold       yellow   
 3 Droid     Droid   none   R2-D2       96    32 <NA>       white, bl… red      
 4 male      Human   male   Darth …    202   136 none       white      yellow   
 5 female    Human   female Leia O…    150    49 brown      light      brown    
 6 male      Human   male   Owen L…    178   120 brown, gr… light      blue     
 7 female    Human   female Beru W…    165    75 brown      light      blue     
 8 Droid     Droid   none   R5-D4       97    32 <NA>       white, red red      
 9 male      Human   male   Biggs …    183    84 black      light      brown    
10 male      Human   male   Obi-Wa…    182    77 auburn, w… fair       blue-gray
# ℹ 77 more rows
# ℹ 6 more variables: birth_year <dbl>, gender <chr>, homeworld <chr>,
#   films <list>, vehicles <list>, starships <list>
…
starwars %>% summarise(height = mean(height, na.rm = TRUE))

# A tibble: 1 × 1
  height
   <dbl>
1   174.

Repeat the above, but include the average mass per species and sex !

a tidyverse solution

starwars %>% group_by(species,sex) %>% summarize(height = mean(height, na.rm = TRUE), mass = mean(mass, na.rm = TRUE))

# A tibble: 41 × 4
# Groups:   species [38]
   species   sex    height  mass
   <chr>     <chr>   <dbl> <dbl>
 1 Aleena    male      79   15  
 2 Besalisk  male     198  102  
 3 Cerean    male     198   82  
 4 Chagrian  male     196  NaN  
 5 Clawdite  female   168   55  
 6 Droid     none     131.  69.8
 7 Dug       male     112   40  
 8 Ewok      male      88   20  
 9 Geonosian male     183   80  
10 Gungan    male     209.  74  
# ℹ 31 more rows
…
exercises

Pivot the world_bank_pop dataset from the tidyr package, to have univariate data for the scores over the different years

a tidyverse solution

world_bank_pop %>% pivot_longer(-c(country,indicator),values_to='scores',names_to='year')

# A tibble: 19,152 × 4
   country indicator   year  scores
   <chr>   <chr>       <chr>  <dbl>
 1 ABW     SP.URB.TOTL 2000   41625
 2 ABW     SP.URB.TOTL 2001   42025
 3 ABW     SP.URB.TOTL 2002   42194
 4 ABW     SP.URB.TOTL 2003   42277
 5 ABW     SP.URB.TOTL 2004   42317
 6 ABW     SP.URB.TOTL 2005   42399
 7 ABW     SP.URB.TOTL 2006   42555
 8 ABW     SP.URB.TOTL 2007   42729
 9 ABW     SP.URB.TOTL 2008   42906
10 ABW     SP.URB.TOTL 2009   43079
# ℹ 19,142 more rows
…
